{
    "projectName": "streamingdemo",
    "version": "3.0",
    "frontend": "javascript",
    "javascript": {
        "framework": "react",
        "config": {
            "SourceDir": "src",
            "DistributionDir": "dist",
            "BuildCommand": "npm run build:dev",
            "StartCommand": "npm run dev"
        }
    },
    "providers": [
        "awscloudformation"
    ]
}